%YAML 1.1
%TAG !u! tag:unity3d.com,2011:
--- !u!114 &11400000
MonoBehaviour:
  m_ObjectHideFlags: 0
  m_CorrespondingSourceObject: {fileID: 0}
  m_PrefabInstance: {fileID: 0}
  m_PrefabAsset: {fileID: 0}
  m_GameObject: {fileID: 0}
  m_Enabled: 1
  m_EditorHideFlags: 0
  m_Script: {fileID: 11500000, guid: c6c07b34b5825a14b9be2ebbb8e7f486, type: 3}
  m_Name: Sound Settings
  m_EditorClassIdentifier: 
  minFXLatency: 0.1
  maxFXLatency: 0.5
  musicFadeOutLength: 1.5
  minFadeVolumeMultiplier: 0.2
  sounds: []
  music: []
