%YAML 1.1
%TAG !u! tag:unity3d.com,2011:
--- !u!114 &11400000
MonoBehaviour:
  m_ObjectHideFlags: 0
  m_CorrespondingSourceObject: {fileID: 0}
  m_PrefabInstance: {fileID: 0}
  m_PrefabAsset: {fileID: 0}
  m_GameObject: {fileID: 0}
  m_Enabled: 1
  m_EditorHideFlags: 0
  m_Script: {fileID: 11500000, guid: c5c04155d43740f46a3223a7eb386e0c, type: 3}
  m_Name: _UIPopupDatabase
  m_EditorClassIdentifier: 
  PopupNames:
  - AchievementPopup
  - AllYourBase
  - Popup1
  - Popup2
  - Popup3
  - Log Jumping
  Popups:
  - {fileID: 0}
  - {fileID: 0}
  - {fileID: 0}
  - {fileID: 0}
  - {fileID: 0}
  - {fileID: 11400000, guid: c43e39c7217d160478d1ddf2cd2b56e5, type: 2}
