%YAML 1.1
%TAG !u! tag:unity3d.com,2011:
--- !u!114 &11400000
MonoBehaviour:
  m_ObjectHideFlags: 0
  m_CorrespondingSourceObject: {fileID: 0}
  m_PrefabInstance: {fileID: 0}
  m_PrefabAsset: {fileID: 0}
  m_GameObject: {fileID: 0}
  m_Enabled: 1
  m_EditorHideFlags: 0
  m_Script: {fileID: 11500000, guid: 322ddcd5cd38fea41b242310cc023a7d, type: 3}
  m_Name: Level Settings
  m_EditorClassIdentifier: 
  SpeedPlayer: 3
  SpeedEnemies: 3
  ForceArrow: 15
  PeriodSpawnEnemy: 5
  PeriodSpawnItems: 1
