{
    "name": "Gamebase.Editor",
    "references": [
        "GUID:21ebb50d4caa3574e96532185ed41294",
        "GUID:75a12c4837603554d8b1c542ac845be2"
    ],
    "includePlatforms": [
        "Editor"
    ],
    "excludePlatforms": [],
    "allowUnsafeCode": false,
    "overrideReferences": false,
    "precompiledReferences": [],
    "autoReferenced": true,
    "defineConstraints": [],
    "versionDefines": [],
    "noEngineReferences": false
}