%YAML 1.1
%TAG !u! tag:unity3d.com,2011:
--- !u!54 &-7654349543439581914
Rigidbody:
  m_ObjectHideFlags: 0
  m_CorrespondingSourceObject: {fileID: 0}
  m_PrefabInstance: {fileID: 0}
  m_PrefabAsset: {fileID: 0}
  m_GameObject: {fileID: 2246178729912408770}
  serializedVersion: 2
  m_Mass: 1
  m_Drag: 0
  m_AngularDrag: 0.05
  m_UseGravity: 0
  m_IsKinematic: 1
  m_Interpolate: 0
  m_Constraints: 126
  m_CollisionDetection: 0
--- !u!65 &2526482252080252273
BoxCollider:
  m_ObjectHideFlags: 0
  m_CorrespondingSourceObject: {fileID: 0}
  m_PrefabInstance: {fileID: 0}
  m_PrefabAsset: {fileID: 0}
  m_GameObject: {fileID: 2246178729912408770}
  m_Material: {fileID: 0}
  m_IsTrigger: 1
  m_Enabled: 1
  serializedVersion: 2
  m_Size: {x: 0.1, y: 0.1, z: 0.1}
  m_Center: {x: 0, y: 1, z: 1}
--- !u!208 &-8355343765350287479
NavMeshObstacle:
  m_ObjectHideFlags: 0
  m_CorrespondingSourceObject: {fileID: 0}
  m_PrefabInstance: {fileID: 0}
  m_PrefabAsset: {fileID: 0}
  m_GameObject: {fileID: 2246178729912408770}
  m_Enabled: 1
  serializedVersion: 3
  m_Shape: 1
  m_Extents: {x: 0.14400001, y: 0.19000001, z: 0.14600001}
  m_MoveThreshold: 0.1
  m_Carve: 0
  m_CarveOnlyStationary: 1
  m_Center: {x: 0.027, y: 0.18200001, z: -0.001}
  m_TimeToStationary: 0.5
--- !u!114 &6585411027395411606
MonoBehaviour:
  m_ObjectHideFlags: 0
  m_CorrespondingSourceObject: {fileID: 0}
  m_PrefabInstance: {fileID: 0}
  m_PrefabAsset: {fileID: 0}
  m_GameObject: {fileID: 2246178729912408770}
  m_Enabled: 1
  m_EditorHideFlags: 0
  m_Script: {fileID: 11500000, guid: d4edf2abc7f600c4c9fa2eaa8224c5f4, type: 3}
  m_Name: 
  m_EditorClassIdentifier: 
--- !u!114 &7798878978492003000
MonoBehaviour:
  m_ObjectHideFlags: 0
  m_CorrespondingSourceObject: {fileID: 0}
  m_PrefabInstance: {fileID: 0}
  m_PrefabAsset: {fileID: 0}
  m_GameObject: {fileID: 2246178729912408770}
  m_Enabled: 1
  m_EditorHideFlags: 0
  m_Script: {fileID: 11500000, guid: 7f1b754ac0177bf4a90bc30083ea2699, type: 3}
  m_Name: 
  m_EditorClassIdentifier: 
--- !u!1001 &7251362692851378103
PrefabInstance:
  m_ObjectHideFlags: 0
  serializedVersion: 2
  m_Modification:
    m_TransformParent: {fileID: 0}
    m_Modifications:
    - target: {fileID: 8903058273634794869, guid: f1fc5bb90ac285e4486771552d63bcb8,
        type: 3}
      propertyPath: m_Name
      value: Grass_01 Variant
      objectReference: {fileID: 0}
    - target: {fileID: 8903058273634794869, guid: f1fc5bb90ac285e4486771552d63bcb8,
        type: 3}
      propertyPath: m_TagString
      value: Branch
      objectReference: {fileID: 0}
    - target: {fileID: 8903058273634951509, guid: f1fc5bb90ac285e4486771552d63bcb8,
        type: 3}
      propertyPath: m_LocalPosition.x
      value: 0
      objectReference: {fileID: 0}
    - target: {fileID: 8903058273634951509, guid: f1fc5bb90ac285e4486771552d63bcb8,
        type: 3}
      propertyPath: m_LocalPosition.y
      value: 0
      objectReference: {fileID: 0}
    - target: {fileID: 8903058273634951509, guid: f1fc5bb90ac285e4486771552d63bcb8,
        type: 3}
      propertyPath: m_LocalPosition.z
      value: 0
      objectReference: {fileID: 0}
    - target: {fileID: 8903058273634951509, guid: f1fc5bb90ac285e4486771552d63bcb8,
        type: 3}
      propertyPath: m_LocalRotation.x
      value: 0
      objectReference: {fileID: 0}
    - target: {fileID: 8903058273634951509, guid: f1fc5bb90ac285e4486771552d63bcb8,
        type: 3}
      propertyPath: m_LocalRotation.y
      value: -0
      objectReference: {fileID: 0}
    - target: {fileID: 8903058273634951509, guid: f1fc5bb90ac285e4486771552d63bcb8,
        type: 3}
      propertyPath: m_LocalRotation.z
      value: -0
      objectReference: {fileID: 0}
    - target: {fileID: 8903058273634951509, guid: f1fc5bb90ac285e4486771552d63bcb8,
        type: 3}
      propertyPath: m_LocalRotation.w
      value: 1
      objectReference: {fileID: 0}
    - target: {fileID: 8903058273634951509, guid: f1fc5bb90ac285e4486771552d63bcb8,
        type: 3}
      propertyPath: m_RootOrder
      value: 0
      objectReference: {fileID: 0}
    - target: {fileID: 8903058273634951509, guid: f1fc5bb90ac285e4486771552d63bcb8,
        type: 3}
      propertyPath: m_LocalEulerAnglesHint.x
      value: 0
      objectReference: {fileID: 0}
    - target: {fileID: 8903058273634951509, guid: f1fc5bb90ac285e4486771552d63bcb8,
        type: 3}
      propertyPath: m_LocalEulerAnglesHint.y
      value: 0
      objectReference: {fileID: 0}
    - target: {fileID: 8903058273634951509, guid: f1fc5bb90ac285e4486771552d63bcb8,
        type: 3}
      propertyPath: m_LocalEulerAnglesHint.z
      value: 0
      objectReference: {fileID: 0}
    - target: {fileID: 8903058273634951509, guid: f1fc5bb90ac285e4486771552d63bcb8,
        type: 3}
      propertyPath: m_LocalScale.x
      value: 2
      objectReference: {fileID: 0}
    - target: {fileID: 8903058273634951509, guid: f1fc5bb90ac285e4486771552d63bcb8,
        type: 3}
      propertyPath: m_LocalScale.y
      value: 2
      objectReference: {fileID: 0}
    - target: {fileID: 8903058273634951509, guid: f1fc5bb90ac285e4486771552d63bcb8,
        type: 3}
      propertyPath: m_LocalScale.z
      value: 2
      objectReference: {fileID: 0}
    - target: {fileID: 8903058273636721589, guid: f1fc5bb90ac285e4486771552d63bcb8,
        type: 3}
      propertyPath: m_Materials.Array.data[0]
      value: 
      objectReference: {fileID: 2100000, guid: 93caadf4359ae8143aad35b3145d31af, type: 2}
    m_RemovedComponents:
    - {fileID: 8015078412845906072, guid: f1fc5bb90ac285e4486771552d63bcb8, type: 3}
  m_SourcePrefab: {fileID: 100100000, guid: f1fc5bb90ac285e4486771552d63bcb8, type: 3}
--- !u!1 &2246178729912408770 stripped
GameObject:
  m_CorrespondingSourceObject: {fileID: 8903058273634794869, guid: f1fc5bb90ac285e4486771552d63bcb8,
    type: 3}
  m_PrefabInstance: {fileID: 7251362692851378103}
  m_PrefabAsset: {fileID: 0}
