%YAML 1.1
%TAG !u! tag:unity3d.com,2011:
--- !u!54 &1686489111088490011
Rigidbody:
  m_ObjectHideFlags: 0
  m_CorrespondingSourceObject: {fileID: 0}
  m_PrefabInstance: {fileID: 0}
  m_PrefabAsset: {fileID: 0}
  m_GameObject: {fileID: 2461482962700179518}
  serializedVersion: 2
  m_Mass: 1
  m_Drag: 0
  m_AngularDrag: 0.05
  m_UseGravity: 0
  m_IsKinematic: 1
  m_Interpolate: 0
  m_Constraints: 126
  m_CollisionDetection: 0
--- !u!65 &122577667956668531
BoxCollider:
  m_ObjectHideFlags: 0
  m_CorrespondingSourceObject: {fileID: 0}
  m_PrefabInstance: {fileID: 0}
  m_PrefabAsset: {fileID: 0}
  m_GameObject: {fileID: 2461482962700179518}
  m_Material: {fileID: 0}
  m_IsTrigger: 1
  m_Enabled: 1
  serializedVersion: 2
  m_Size: {x: 0.158, y: 0.23, z: 0.166}
  m_Center: {x: 0.002, y: 0.115, z: 0.005}
--- !u!208 &-4979438525978047916
NavMeshObstacle:
  m_ObjectHideFlags: 0
  m_CorrespondingSourceObject: {fileID: 0}
  m_PrefabInstance: {fileID: 0}
  m_PrefabAsset: {fileID: 0}
  m_GameObject: {fileID: 2461482962700179518}
  m_Enabled: 1
  serializedVersion: 3
  m_Shape: 1
  m_Extents: {x: 0.079, y: 0.115, z: 0.083000004}
  m_MoveThreshold: 0.1
  m_Carve: 0
  m_CarveOnlyStationary: 1
  m_Center: {x: 0.002, y: 0.115, z: 0.0050000004}
  m_TimeToStationary: 0.5
--- !u!114 &2961072405792999265
MonoBehaviour:
  m_ObjectHideFlags: 0
  m_CorrespondingSourceObject: {fileID: 0}
  m_PrefabInstance: {fileID: 0}
  m_PrefabAsset: {fileID: 0}
  m_GameObject: {fileID: 2461482962700179518}
  m_Enabled: 1
  m_EditorHideFlags: 0
  m_Script: {fileID: 11500000, guid: 7f1b754ac0177bf4a90bc30083ea2699, type: 3}
  m_Name: 
  m_EditorClassIdentifier: 
--- !u!114 &4922116773036598023
MonoBehaviour:
  m_ObjectHideFlags: 0
  m_CorrespondingSourceObject: {fileID: 0}
  m_PrefabInstance: {fileID: 0}
  m_PrefabAsset: {fileID: 0}
  m_GameObject: {fileID: 2461482962700179518}
  m_Enabled: 1
  m_EditorHideFlags: 0
  m_Script: {fileID: 11500000, guid: d4edf2abc7f600c4c9fa2eaa8224c5f4, type: 3}
  m_Name: 
  m_EditorClassIdentifier: 
--- !u!1001 &7613818695824562537
PrefabInstance:
  m_ObjectHideFlags: 0
  serializedVersion: 2
  m_Modification:
    m_TransformParent: {fileID: 0}
    m_Modifications:
    - target: {fileID: 5440707293443317655, guid: 494f6d43e170e9145bc7865d243ee00b,
        type: 3}
      propertyPath: m_Materials.Array.data[0]
      value: 
      objectReference: {fileID: 2100000, guid: 93caadf4359ae8143aad35b3145d31af, type: 2}
    - target: {fileID: 5440707293445505367, guid: 494f6d43e170e9145bc7865d243ee00b,
        type: 3}
      propertyPath: m_Name
      value: Mushroom_02 Variant
      objectReference: {fileID: 0}
    - target: {fileID: 5440707293445505367, guid: 494f6d43e170e9145bc7865d243ee00b,
        type: 3}
      propertyPath: m_TagString
      value: Branch
      objectReference: {fileID: 0}
    - target: {fileID: 5440707293445741943, guid: 494f6d43e170e9145bc7865d243ee00b,
        type: 3}
      propertyPath: m_LocalPosition.x
      value: 0
      objectReference: {fileID: 0}
    - target: {fileID: 5440707293445741943, guid: 494f6d43e170e9145bc7865d243ee00b,
        type: 3}
      propertyPath: m_LocalPosition.y
      value: 0
      objectReference: {fileID: 0}
    - target: {fileID: 5440707293445741943, guid: 494f6d43e170e9145bc7865d243ee00b,
        type: 3}
      propertyPath: m_LocalPosition.z
      value: 0
      objectReference: {fileID: 0}
    - target: {fileID: 5440707293445741943, guid: 494f6d43e170e9145bc7865d243ee00b,
        type: 3}
      propertyPath: m_LocalRotation.x
      value: 0
      objectReference: {fileID: 0}
    - target: {fileID: 5440707293445741943, guid: 494f6d43e170e9145bc7865d243ee00b,
        type: 3}
      propertyPath: m_LocalRotation.y
      value: -0
      objectReference: {fileID: 0}
    - target: {fileID: 5440707293445741943, guid: 494f6d43e170e9145bc7865d243ee00b,
        type: 3}
      propertyPath: m_LocalRotation.z
      value: -0
      objectReference: {fileID: 0}
    - target: {fileID: 5440707293445741943, guid: 494f6d43e170e9145bc7865d243ee00b,
        type: 3}
      propertyPath: m_LocalRotation.w
      value: 1
      objectReference: {fileID: 0}
    - target: {fileID: 5440707293445741943, guid: 494f6d43e170e9145bc7865d243ee00b,
        type: 3}
      propertyPath: m_RootOrder
      value: 0
      objectReference: {fileID: 0}
    - target: {fileID: 5440707293445741943, guid: 494f6d43e170e9145bc7865d243ee00b,
        type: 3}
      propertyPath: m_LocalEulerAnglesHint.x
      value: 0
      objectReference: {fileID: 0}
    - target: {fileID: 5440707293445741943, guid: 494f6d43e170e9145bc7865d243ee00b,
        type: 3}
      propertyPath: m_LocalEulerAnglesHint.y
      value: 0
      objectReference: {fileID: 0}
    - target: {fileID: 5440707293445741943, guid: 494f6d43e170e9145bc7865d243ee00b,
        type: 3}
      propertyPath: m_LocalEulerAnglesHint.z
      value: 0
      objectReference: {fileID: 0}
    - target: {fileID: 5440707293445741943, guid: 494f6d43e170e9145bc7865d243ee00b,
        type: 3}
      propertyPath: m_LocalScale.x
      value: 3
      objectReference: {fileID: 0}
    - target: {fileID: 5440707293445741943, guid: 494f6d43e170e9145bc7865d243ee00b,
        type: 3}
      propertyPath: m_LocalScale.y
      value: 3
      objectReference: {fileID: 0}
    - target: {fileID: 5440707293445741943, guid: 494f6d43e170e9145bc7865d243ee00b,
        type: 3}
      propertyPath: m_LocalScale.z
      value: 3
      objectReference: {fileID: 0}
    m_RemovedComponents:
    - {fileID: 5371485246626056766, guid: 494f6d43e170e9145bc7865d243ee00b, type: 3}
  m_SourcePrefab: {fileID: 100100000, guid: 494f6d43e170e9145bc7865d243ee00b, type: 3}
--- !u!1 &2461482962700179518 stripped
GameObject:
  m_CorrespondingSourceObject: {fileID: 5440707293445505367, guid: 494f6d43e170e9145bc7865d243ee00b,
    type: 3}
  m_PrefabInstance: {fileID: 7613818695824562537}
  m_PrefabAsset: {fileID: 0}
