%YAML 1.1
%TAG !u! tag:unity3d.com,2011:
--- !u!54 &1868707659677442561
Rigidbody:
  m_ObjectHideFlags: 0
  m_CorrespondingSourceObject: {fileID: 0}
  m_PrefabInstance: {fileID: 0}
  m_PrefabAsset: {fileID: 0}
  m_GameObject: {fileID: 6064563214284824200}
  serializedVersion: 2
  m_Mass: 1
  m_Drag: 0
  m_AngularDrag: 0.05
  m_UseGravity: 0
  m_IsKinematic: 1
  m_Interpolate: 0
  m_Constraints: 126
  m_CollisionDetection: 0
--- !u!65 &3958429831112155641
BoxCollider:
  m_ObjectHideFlags: 0
  m_CorrespondingSourceObject: {fileID: 0}
  m_PrefabInstance: {fileID: 0}
  m_PrefabAsset: {fileID: 0}
  m_GameObject: {fileID: 6064563214284824200}
  m_Material: {fileID: 0}
  m_IsTrigger: 1
  m_Enabled: 1
  serializedVersion: 2
  m_Size: {x: 0.66, y: 0.814, z: 0.5700001}
  m_Center: {x: -0.041, y: 0.407, z: 0}
--- !u!208 &-3668690818482401717
NavMeshObstacle:
  m_ObjectHideFlags: 0
  m_CorrespondingSourceObject: {fileID: 0}
  m_PrefabInstance: {fileID: 0}
  m_PrefabAsset: {fileID: 0}
  m_GameObject: {fileID: 6064563214284824200}
  m_Enabled: 1
  serializedVersion: 3
  m_Shape: 1
  m_Extents: {x: 0.33, y: 0.407, z: 0.28500003}
  m_MoveThreshold: 0.1
  m_Carve: 0
  m_CarveOnlyStationary: 1
  m_Center: {x: -0.041, y: 0.407, z: 0}
  m_TimeToStationary: 0.5
--- !u!114 &5767358198967254510
MonoBehaviour:
  m_ObjectHideFlags: 0
  m_CorrespondingSourceObject: {fileID: 0}
  m_PrefabInstance: {fileID: 0}
  m_PrefabAsset: {fileID: 0}
  m_GameObject: {fileID: 6064563214284824200}
  m_Enabled: 1
  m_EditorHideFlags: 0
  m_Script: {fileID: 11500000, guid: 7f1b754ac0177bf4a90bc30083ea2699, type: 3}
  m_Name: 
  m_EditorClassIdentifier: 
--- !u!114 &8180161704553318441
MonoBehaviour:
  m_ObjectHideFlags: 0
  m_CorrespondingSourceObject: {fileID: 0}
  m_PrefabInstance: {fileID: 0}
  m_PrefabAsset: {fileID: 0}
  m_GameObject: {fileID: 6064563214284824200}
  m_Enabled: 1
  m_EditorHideFlags: 0
  m_Script: {fileID: 11500000, guid: d4edf2abc7f600c4c9fa2eaa8224c5f4, type: 3}
  m_Name: 
  m_EditorClassIdentifier: 
--- !u!1001 &6172419382362078341
PrefabInstance:
  m_ObjectHideFlags: 0
  serializedVersion: 2
  m_Modification:
    m_TransformParent: {fileID: 0}
    m_Modifications:
    - target: {fileID: 108507113622797517, guid: eebb56c82efbd8d4bb0eb6bd925a0e9d,
        type: 3}
      propertyPath: m_Materials.Array.data[0]
      value: 
      objectReference: {fileID: 2100000, guid: 93caadf4359ae8143aad35b3145d31af, type: 2}
    - target: {fileID: 108507113624698413, guid: eebb56c82efbd8d4bb0eb6bd925a0e9d,
        type: 3}
      propertyPath: m_LocalPosition.x
      value: 0
      objectReference: {fileID: 0}
    - target: {fileID: 108507113624698413, guid: eebb56c82efbd8d4bb0eb6bd925a0e9d,
        type: 3}
      propertyPath: m_LocalPosition.y
      value: 0
      objectReference: {fileID: 0}
    - target: {fileID: 108507113624698413, guid: eebb56c82efbd8d4bb0eb6bd925a0e9d,
        type: 3}
      propertyPath: m_LocalPosition.z
      value: 0
      objectReference: {fileID: 0}
    - target: {fileID: 108507113624698413, guid: eebb56c82efbd8d4bb0eb6bd925a0e9d,
        type: 3}
      propertyPath: m_LocalRotation.x
      value: 0
      objectReference: {fileID: 0}
    - target: {fileID: 108507113624698413, guid: eebb56c82efbd8d4bb0eb6bd925a0e9d,
        type: 3}
      propertyPath: m_LocalRotation.y
      value: -0
      objectReference: {fileID: 0}
    - target: {fileID: 108507113624698413, guid: eebb56c82efbd8d4bb0eb6bd925a0e9d,
        type: 3}
      propertyPath: m_LocalRotation.z
      value: -0
      objectReference: {fileID: 0}
    - target: {fileID: 108507113624698413, guid: eebb56c82efbd8d4bb0eb6bd925a0e9d,
        type: 3}
      propertyPath: m_LocalRotation.w
      value: 1
      objectReference: {fileID: 0}
    - target: {fileID: 108507113624698413, guid: eebb56c82efbd8d4bb0eb6bd925a0e9d,
        type: 3}
      propertyPath: m_RootOrder
      value: 0
      objectReference: {fileID: 0}
    - target: {fileID: 108507113624698413, guid: eebb56c82efbd8d4bb0eb6bd925a0e9d,
        type: 3}
      propertyPath: m_LocalEulerAnglesHint.x
      value: 0
      objectReference: {fileID: 0}
    - target: {fileID: 108507113624698413, guid: eebb56c82efbd8d4bb0eb6bd925a0e9d,
        type: 3}
      propertyPath: m_LocalEulerAnglesHint.y
      value: 0
      objectReference: {fileID: 0}
    - target: {fileID: 108507113624698413, guid: eebb56c82efbd8d4bb0eb6bd925a0e9d,
        type: 3}
      propertyPath: m_LocalEulerAnglesHint.z
      value: 0
      objectReference: {fileID: 0}
    - target: {fileID: 108507113624723981, guid: eebb56c82efbd8d4bb0eb6bd925a0e9d,
        type: 3}
      propertyPath: m_Name
      value: Stump_01 Variant
      objectReference: {fileID: 0}
    - target: {fileID: 108507113624723981, guid: eebb56c82efbd8d4bb0eb6bd925a0e9d,
        type: 3}
      propertyPath: m_TagString
      value: Branch
      objectReference: {fileID: 0}
    m_RemovedComponents:
    - {fileID: 840579875832209995, guid: eebb56c82efbd8d4bb0eb6bd925a0e9d, type: 3}
  m_SourcePrefab: {fileID: 100100000, guid: eebb56c82efbd8d4bb0eb6bd925a0e9d, type: 3}
--- !u!1 &6064563214284824200 stripped
GameObject:
  m_CorrespondingSourceObject: {fileID: 108507113624723981, guid: eebb56c82efbd8d4bb0eb6bd925a0e9d,
    type: 3}
  m_PrefabInstance: {fileID: 6172419382362078341}
  m_PrefabAsset: {fileID: 0}
