%YAML 1.1
%TAG !u! tag:unity3d.com,2011:
--- !u!54 &1262067037703367798
Rigidbody:
  m_ObjectHideFlags: 0
  m_CorrespondingSourceObject: {fileID: 0}
  m_PrefabInstance: {fileID: 0}
  m_PrefabAsset: {fileID: 0}
  m_GameObject: {fileID: 5685660832821772545}
  serializedVersion: 2
  m_Mass: 1
  m_Drag: 0
  m_AngularDrag: 0.05
  m_UseGravity: 0
  m_IsKinematic: 0
  m_Interpolate: 0
  m_Constraints: 126
  m_CollisionDetection: 0
--- !u!135 &2311466364986178287
SphereCollider:
  m_ObjectHideFlags: 0
  m_CorrespondingSourceObject: {fileID: 0}
  m_PrefabInstance: {fileID: 0}
  m_PrefabAsset: {fileID: 0}
  m_GameObject: {fileID: 5685660832821772545}
  m_Material: {fileID: 0}
  m_IsTrigger: 0
  m_Enabled: 1
  serializedVersion: 2
  m_Radius: 0.15461624
  m_Center: {x: 0.006947659, y: 0.011773393, z: 0.0016698837}
--- !u!114 &5089885660875666606
MonoBehaviour:
  m_ObjectHideFlags: 0
  m_CorrespondingSourceObject: {fileID: 0}
  m_PrefabInstance: {fileID: 0}
  m_PrefabAsset: {fileID: 0}
  m_GameObject: {fileID: 5685660832821772545}
  m_Enabled: 1
  m_EditorHideFlags: 0
  m_Script: {fileID: 11500000, guid: 7f1b754ac0177bf4a90bc30083ea2699, type: 3}
  m_Name: 
  m_EditorClassIdentifier: 
--- !u!114 &6545240874196477452
MonoBehaviour:
  m_ObjectHideFlags: 0
  m_CorrespondingSourceObject: {fileID: 0}
  m_PrefabInstance: {fileID: 0}
  m_PrefabAsset: {fileID: 0}
  m_GameObject: {fileID: 5685660832821772545}
  m_Enabled: 1
  m_EditorHideFlags: 0
  m_Script: {fileID: 11500000, guid: b4b34c9ed9ca44b458bfd633f2c209e1, type: 3}
  m_Name: 
  m_EditorClassIdentifier: 
  settings: {fileID: 11400000, guid: ccb84f8d0555099419ada4c10856575c, type: 2}
--- !u!1001 &1014121613853357995
PrefabInstance:
  m_ObjectHideFlags: 0
  serializedVersion: 2
  m_Modification:
    m_TransformParent: {fileID: 0}
    m_Modifications:
    - target: {fileID: 4680757731157960810, guid: 0fde05fa0f3321942a21896ff4f0856f,
        type: 3}
      propertyPath: m_Materials.Array.data[0]
      value: 
      objectReference: {fileID: 2100000, guid: 270f668c08047f841b3603f753ac5f25, type: 2}
    - target: {fileID: 4680757731159730826, guid: 0fde05fa0f3321942a21896ff4f0856f,
        type: 3}
      propertyPath: m_LocalPosition.x
      value: 0
      objectReference: {fileID: 0}
    - target: {fileID: 4680757731159730826, guid: 0fde05fa0f3321942a21896ff4f0856f,
        type: 3}
      propertyPath: m_LocalPosition.y
      value: 0
      objectReference: {fileID: 0}
    - target: {fileID: 4680757731159730826, guid: 0fde05fa0f3321942a21896ff4f0856f,
        type: 3}
      propertyPath: m_LocalPosition.z
      value: 0
      objectReference: {fileID: 0}
    - target: {fileID: 4680757731159730826, guid: 0fde05fa0f3321942a21896ff4f0856f,
        type: 3}
      propertyPath: m_LocalRotation.x
      value: 0
      objectReference: {fileID: 0}
    - target: {fileID: 4680757731159730826, guid: 0fde05fa0f3321942a21896ff4f0856f,
        type: 3}
      propertyPath: m_LocalRotation.y
      value: -0
      objectReference: {fileID: 0}
    - target: {fileID: 4680757731159730826, guid: 0fde05fa0f3321942a21896ff4f0856f,
        type: 3}
      propertyPath: m_LocalRotation.z
      value: -0
      objectReference: {fileID: 0}
    - target: {fileID: 4680757731159730826, guid: 0fde05fa0f3321942a21896ff4f0856f,
        type: 3}
      propertyPath: m_LocalRotation.w
      value: 1
      objectReference: {fileID: 0}
    - target: {fileID: 4680757731159730826, guid: 0fde05fa0f3321942a21896ff4f0856f,
        type: 3}
      propertyPath: m_RootOrder
      value: 0
      objectReference: {fileID: 0}
    - target: {fileID: 4680757731159730826, guid: 0fde05fa0f3321942a21896ff4f0856f,
        type: 3}
      propertyPath: m_LocalEulerAnglesHint.x
      value: 0
      objectReference: {fileID: 0}
    - target: {fileID: 4680757731159730826, guid: 0fde05fa0f3321942a21896ff4f0856f,
        type: 3}
      propertyPath: m_LocalEulerAnglesHint.y
      value: 0
      objectReference: {fileID: 0}
    - target: {fileID: 4680757731159730826, guid: 0fde05fa0f3321942a21896ff4f0856f,
        type: 3}
      propertyPath: m_LocalEulerAnglesHint.z
      value: 0
      objectReference: {fileID: 0}
    - target: {fileID: 4680757731159730826, guid: 0fde05fa0f3321942a21896ff4f0856f,
        type: 3}
      propertyPath: m_LocalScale.x
      value: 4
      objectReference: {fileID: 0}
    - target: {fileID: 4680757731159730826, guid: 0fde05fa0f3321942a21896ff4f0856f,
        type: 3}
      propertyPath: m_LocalScale.y
      value: 4
      objectReference: {fileID: 0}
    - target: {fileID: 4680757731159730826, guid: 0fde05fa0f3321942a21896ff4f0856f,
        type: 3}
      propertyPath: m_LocalScale.z
      value: 4
      objectReference: {fileID: 0}
    - target: {fileID: 4680757731160225450, guid: 0fde05fa0f3321942a21896ff4f0856f,
        type: 3}
      propertyPath: m_Name
      value: Rock_03
      objectReference: {fileID: 0}
    m_RemovedComponents:
    - {fileID: 7495719641570791432, guid: 0fde05fa0f3321942a21896ff4f0856f, type: 3}
  m_SourcePrefab: {fileID: 100100000, guid: 0fde05fa0f3321942a21896ff4f0856f, type: 3}
--- !u!1 &5685660832821772545 stripped
GameObject:
  m_CorrespondingSourceObject: {fileID: 4680757731160225450, guid: 0fde05fa0f3321942a21896ff4f0856f,
    type: 3}
  m_PrefabInstance: {fileID: 1014121613853357995}
  m_PrefabAsset: {fileID: 0}
